{
  "swagger": "2.0",
  "basePath": "/",
  "paths": {
    "/city/{city}/users": {
      "parameters": [
        {
          "name": "city",
          "in": "path",
          "required": true,
          "type": "string"
        }
      ],
      "get": {
        "responses": {
          "200": {
            "description": "Success"
          }
        },
        "operationId": "get_city",
        "tags": [
          "default"
        ]
      }
    },
    "/instructions": {
      "get": {
        "responses": {
          "200": {
            "description": "Success"
          }
        },
        "operationId": "instructions",
        "tags": [
          "default"
        ]
      }
    },
    "/user/{id}": {
      "parameters": [
        {
          "name": "id",
          "in": "path",
          "required": true,
          "type": "string"
        }
      ],
      "get": {
        "responses": {
          "404": {
            "description": "Not Found"
          },
          "200": {
            "description": "Success"
          }
        },
        "operationId": "get_user",
        "tags": [
          "default"
        ]
      }
    },
    "/users": {
      "get": {
        "responses": {
          "200": {
            "description": "Success"
          }
        },
        "operationId": "get_users",
        "tags": [
          "default"
        ]
      }
    }
  },
  "info": {
    "title": "API",
    "version": "1.0"
  },
  "produces": [
    "application/json"
  ],
  "consumes": [
    "application/json"
  ],
  "tags": [
    {
      "name": "default",
      "description": "Default namespace"
    }
  ],
  "responses": {
    "ParseError": {
      "description": "When a mask can't be parsed"
    },
    "MaskError": {
      "description": "When any error occurs on mask"
    }
  }
}
